emulator: ERROR: AdbHostServer.cpp:93: Unable to connect to adb daemon on port: 5037
emulator: ERROR: AdbHostServer.cpp:93: Unable to connect to adb daemon on port: 5037
Windows Hypervisor Platform accelerator is operational
Your emulator is out of date, please update by launching Android Studio:
 - Start Android Studio
 - Select menu "Tools > Android > SDK Manager"
 - Click "SDK Tools" tab
 - Check "Android Emulator" checkbox
 - Click "OK"

##KBD: Full queue, dropping event, current drop count: 1
##KBD: Full queue, dropping event, current drop count: 2
##KBD: Full queue, dropping event, current drop count: 3
##KBD: Full queue, dropping event, current drop count: 4
##KBD: Full queue, dropping event, current drop count: 5
##KBD: Full queue, dropping event, current drop count: 6
##KBD: Full queue, dropping event, current drop count: 7
##KBD: Full queue, dropping event, current drop count: 8
##KBD: Full queue, dropping event, current drop count: 9
##KBD: Full queue, dropping event, current drop count: 10
##KBD: Full queue, dropping event, current drop count: 11
##KBD: Full queue, dropping event, current drop count: 12
##KBD: Full queue, dropping event, current drop count: 13
##KBD: Full queue, dropping event, current drop count: 14
##KBD: Full queue, dropping event, current drop count: 15
##KBD: Full queue, dropping event, current drop count: 16
##KBD: Full queue, dropping event, current drop count: 17
##KBD: Full queue, dropping event, current drop count: 18
##KBD: Full queue, dropping event, current drop count: 19
##KBD: Full queue, dropping event, current drop count: 20
##KBD: Full queue, dropping event, current drop count: 21
##KBD: Full queue, dropping event, current drop count: 22
##KBD: Full queue, dropping event, current drop count: 23
##KBD: Full queue, dropping event, current drop count: 24
##KBD: Full queue, dropping event, current drop count: 25
##KBD: Full queue, dropping event, current drop count: 26
##KBD: Full queue, dropping event, current drop count: 27
##KBD: Full queue, dropping event, current drop count: 28
##KBD: Full queue, dropping event, current drop count: 29
##KBD: Full queue, dropping event, current drop count: 30
##KBD: Full queue, dropping event, current drop count: 31
##KBD: Full queue, dropping event, current drop count: 32
##KBD: Full queue, dropping event, current drop count: 33
##KBD: Full queue, dropping event, current drop count: 34
##KBD: Full queue, dropping event, current drop count: 35
##KBD: Full queue, dropping event, current drop count: 36
##KBD: Full queue, dropping event, current drop count: 37
##KBD: Full queue, dropping event, current drop count: 38
##KBD: Full queue, dropping event, current drop count: 39
##KBD: Full queue, dropping event, current drop count: 40
##KBD: Full queue, dropping event, current drop count: 41
##KBD: Full queue, dropping event, current drop count: 42
##KBD: Full queue, dropping event, current drop count: 43
##KBD: Full queue, dropping event, current drop count: 44
##KBD: Full queue, dropping event, current drop count: 45
##KBD: Full queue, dropping event, current drop count: 46
##KBD: Full queue, dropping event, current drop count: 47
##KBD: Full queue, dropping event, current drop count: 48
##KBD: Full queue, dropping event, current drop count: 49
##KBD: Full queue, dropping event, current drop count: 50
##KBD: Full queue, dropping event, current drop count: 51
##KBD: Full queue, dropping event, current drop count: 52
##KBD: Full queue, dropping event, current drop count: 53
##KBD: Full queue, dropping event, current drop count: 54
##KBD: Full queue, dropping event, current drop count: 55
##KBD: Full queue, dropping event, current drop count: 56
##KBD: Full queue, dropping event, current drop count: 57
##KBD: Full queue, dropping event, current drop count: 58
##KBD: Full queue, dropping event, current drop count: 59
##KBD: Full queue, dropping event, current drop count: 60
##KBD: Full queue, dropping event, current drop count: 61
##KBD: Full queue, dropping event, current drop count: 62
##KBD: Full queue, dropping event, current drop count: 63
##KBD: Full queue, dropping event, current drop count: 64
##KBD: Full queue, dropping event, current drop count: 65
##KBD: Full queue, dropping event, current drop count: 66
##KBD: Full queue, dropping event, current drop count: 67
##KBD: Full queue, dropping event, current drop count: 68
##KBD: Full queue, dropping event, current drop count: 69
##KBD: Full queue, dropping event, current drop count: 70
##KBD: Full queue, dropping event, current drop count: 71
##KBD: Full queue, dropping event, current drop count: 72
##KBD: Full queue, dropping event, current drop count: 73
##KBD: Full queue, dropping event, current drop count: 74
##KBD: Full queue, dropping event, current drop count: 75
##KBD: Full queue, dropping event, current drop count: 76
##KBD: Full queue, dropping event, current drop count: 77
##KBD: Full queue, dropping event, current drop count: 78
##KBD: Full queue, dropping event, current drop count: 79
##KBD: Full queue, dropping event, current drop count: 80
##KBD: Full queue, dropping event, current drop count: 81
##KBD: Full queue, dropping event, current drop count: 82
##KBD: Full queue, dropping event, current drop count: 83
##KBD: Full queue, dropping event, current drop count: 84
##KBD: Full queue, dropping event, current drop count: 85
##KBD: Full queue, dropping event, current drop count: 86
##KBD: Full queue, dropping event, current drop count: 87
##KBD: Full queue, dropping event, current drop count: 88
##KBD: Full queue, dropping event, current drop count: 89
##KBD: Full queue, dropping event, current drop count: 90
emulator: WARNING: Not saving state: RAM not mapped as shared
emulator: WARNING: Crash service did not start

Windows Hypervisor Platform accelerator is operational
Your emulator is out of date, please update by launching Android Studio:
 - Start Android Studio
 - Select menu "Tools > Android > SDK Manager"
 - Click "SDK Tools" tab
 - Check "Android Emulator" checkbox
 - Click "OK"

emulator: WARNING: Not saving state: RAM not mapped as shared
Windows Hypervisor Platform accelerator is operational
emulator: WARNING: Not saving state: RAM not mapped as shared
emulator: WARNING: Crash service did not start

Windows Hypervisor Platform accelerator is operational
Your emulator is out of date, please update by launching Android Studio:
 - Start Android Studio
 - Select menu "Tools > Android > SDK Manager"
 - Click "SDK Tools" tab
 - Check "Android Emulator" checkbox
 - Click "OK"

emulator: WARNING: Crash service did not start

Windows Hypervisor Platform accelerator is operational
Your emulator is out of date, please update by launching Android Studio:
 - Start Android Studio
 - Select menu "Tools > Android > SDK Manager"
 - Click "SDK Tools" tab
 - Check "Android Emulator" checkbox
 - Click "OK"

glTexImage2D: got err pre :( 0x502 internal 0x1908 format 0x1908 type 0x1401
emulator: WARNING: Not saving state: RAM not mapped as shared
Windows Hypervisor Platform accelerator is operational
Your emulator is out of date, please update by launching Android Studio:
 - Start Android Studio
 - Select menu "Tools > Android > SDK Manager"
 - Click "SDK Tools" tab
 - Check "Android Emulator" checkbox
 - Click "OK"

emulator: WARNING: Not saving state: RAM not mapped as shared
emulator: WARNING: Crash service did not start

Windows Hypervisor Platform accelerator is operational
emulator: WARNING: Not saving state: RAM not mapped as shared
emulator: WARNING: Crash service did not start

Windows Hypervisor Platform accelerator is operational
Your emulator is out of date, please update by launching Android Studio:
 - Start Android Studio
 - Select menu "Tools > Android > SDK Manager"
 - Click "SDK Tools" tab
 - Check "Android Emulator" checkbox
 - Click "OK"

emulator: INFO: ScreenCapturer.cpp:67: Screenshot from renderer
emulator: WARNING: Not saving state: RAM not mapped as shared
emulator: WARNING: Crash service did not start

Windows Hypervisor Platform accelerator is operational
Fatal: QThread: Destroyed while thread is still running ((null):0, (null))
emulator: INFO: QtLogger.cpp:66: Fatal: QThread: Destroyed while thread is still running ((null):0, (null))


emulator: ERROR: AdbHostServer.cpp:93: Unable to connect to adb daemon on port: 5037
emulator: ERROR: AdbHostServer.cpp:93: Unable to connect to adb daemon on port: 5037
Windows Hypervisor Platform accelerator is operational
Your emulator is out of date, please update by launching Android Studio:
 - Start Android Studio
 - Select menu "Tools > Android > SDK Manager"
 - Click "SDK Tools" tab
 - Check "Android Emulator" checkbox
 - Click "OK"

emulator: emulator window was out of view and was recentered

emulator: INFO: Starting webcam at 1280x960
emulator: INFO: camera-capture-windows.cpp:1193: Creating webcam source reader with format NV12, size 1280x960
Fatal: QThread: Destroyed while thread is still running ((null):0, (null))
emulator: INFO: QtLogger.cpp:66: Fatal: QThread: Destroyed while thread is still running ((null):0, (null))


emulator: ERROR: AdbHostServer.cpp:93: Unable to connect to adb daemon on port: 5037
emulator: ERROR: AdbHostServer.cpp:93: Unable to connect to adb daemon on port: 5037
Windows Hypervisor Platform accelerator is operational
Your emulator is out of date, please update by launching Android Studio:
 - Start Android Studio
 - Select menu "Tools > Android > SDK Manager"
 - Click "SDK Tools" tab
 - Check "Android Emulator" checkbox
 - Click "OK"

emulator: emulator window was out of view and was recentered

deleteSnapshot: for default_boot
emulator: WARNING: Crash service did not start

Windows Hypervisor Platform accelerator is operational
Your emulator is out of date, please update by launching Android Studio:
 - Start Android Studio
 - Select menu "Tools > Android > SDK Manager"
 - Click "SDK Tools" tab
 - Check "Android Emulator" checkbox
 - Click "OK"

emulator: WARNING: Not saving state: RAM not mapped as shared
emulator: ERROR: AdbHostServer.cpp:93: Unable to connect to adb daemon on port: 5037
emulator: ERROR: AdbHostServer.cpp:93: Unable to connect to adb daemon on port: 5037
emulator: WARNING: Crash service did not start

Windows Hypervisor Platform accelerator is operational
Your emulator is out of date, please update by launching Android Studio:
 - Start Android Studio
 - Select menu "Tools > Android > SDK Manager"
 - Click "SDK Tools" tab
 - Check "Android Emulator" checkbox
 - Click "OK"

setWindowSurfaceColorBuffer: bad window surface handle 0x5
deleteSnapshot: for default_boot
Windows Hypervisor Platform accelerator is operational
deleteSnapshot: for default_boot
emulator: WARNING: Crash service did not start

Windows Hypervisor Platform accelerator is operational
Your emulator is out of date, please update by launching Android Studio:
 - Start Android Studio
 - Select menu "Tools > Android > SDK Manager"
 - Click "SDK Tools" tab
 - Check "Android Emulator" checkbox
 - Click "OK"

deleteSnapshot: for default_boot
emulator: WARNING: Crash service did not start

Windows Hypervisor Platform accelerator is operational
Your emulator is out of date, please update by launching Android Studio:
 - Start Android Studio
 - Select menu "Tools > Android > SDK Manager"
 - Click "SDK Tools" tab
 - Check "Android Emulator" checkbox
 - Click "OK"

deleteSnapshot: for default_boot
emulator: ERROR: AdbHostServer.cpp:93: Unable to connect to adb daemon on port: 5037
emulator: ERROR: AdbHostServer.cpp:93: Unable to connect to adb daemon on port: 5037
emulator: WARNING: Crash service did not start

Windows Hypervisor Platform accelerator is operational
Your emulator is out of date, please update by launching Android Studio:
 - Start Android Studio
 - Select menu "Tools > Android > SDK Manager"
 - Click "SDK Tools" tab
 - Check "Android Emulator" checkbox
 - Click "OK"

deleteSnapshot: for default_boot
emulator: ERROR: AdbHostServer.cpp:93: Unable to connect to adb daemon on port: 5037
emulator: ERROR: AdbHostServer.cpp:93: Unable to connect to adb daemon on port: 5037
Windows Hypervisor Platform accelerator is operational
emulator: WARNING: UpdateCheck: Failure: Error
emulator: WARNING: UpdateCheck: failed to get the latest version, skipping check (current version '29.0.11-5598178')
emulator: WARNING: UpdateCheck: Failure: Error
emulator: WARNING: Not saving state: RAM not mapped as shared
emulator: ERROR: AdbHostServer.cpp:93: Unable to connect to adb daemon on port: 5037
emulator: ERROR: AdbHostServer.cpp:93: Unable to connect to adb daemon on port: 5037
emulator: WARNING: Crash service did not start

Windows Hypervisor Platform accelerator is operational
Your emulator is out of date, please update by launching Android Studio:
 - Start Android Studio
 - Select menu "Tools > Android > SDK Manager"
 - Click "SDK Tools" tab
 - Check "Android Emulator" checkbox
 - Click "OK"

emulator: INFO: Starting webcam at 1280x960
emulator: INFO: camera-capture-windows.cpp:1193: Creating webcam source reader with format NV12, size 1280x960
emulator: INFO: Starting webcam at 1280x960
emulator: INFO: camera-capture-windows.cpp:1193: Creating webcam source reader with format NV12, size 1280x960
emulator: INFO: Starting webcam at 1280x960
emulator: INFO: camera-capture-windows.cpp:1193: Creating webcam source reader with format NV12, size 1280x960
emulator: INFO: Starting webcam at 1280x960
emulator: INFO: camera-capture-windows.cpp:1193: Creating webcam source reader with format NV12, size 1280x960
deleteSnapshot: for default_boot
emulator: WARNING: Crash service did not start

Windows Hypervisor Platform accelerator is operational
Your emulator is out of date, please update by launching Android Studio:
 - Start Android Studio
 - Select menu "Tools > Android > SDK Manager"
 - Click "SDK Tools" tab
 - Check "Android Emulator" checkbox
 - Click "OK"

emulator: emulator window was out of view and was recentered

deleteSnapshot: for default_boot
Windows Hypervisor Platform accelerator is operational
Your emulator is out of date, please update by launching Android Studio:
 - Start Android Studio
 - Select menu "Tools > Android > SDK Manager"
 - Click "SDK Tools" tab
 - Check "Android Emulator" checkbox
 - Click "OK"

deleteSnapshot: for default_boot
emulator: ERROR: AdbHostServer.cpp:93: Unable to connect to adb daemon on port: 5037
emulator: ERROR: AdbHostServer.cpp:93: Unable to connect to adb daemon on port: 5037
Windows Hypervisor Platform accelerator is operational
Your emulator is out of date, please update by launching Android Studio:
 - Start Android Studio
 - Select menu "Tools > Android > SDK Manager"
 - Click "SDK Tools" tab
 - Check "Android Emulator" checkbox
 - Click "OK"

emulator: INFO: ScreenCapturer.cpp:67: Screenshot from renderer
C:\apps\AndroidSDK\emulator\qemu\windows-x86_64\qemu-system-x86_64.exe: icmpv6 ICMP6_ECHO_REQUEST failed
C:\apps\AndroidSDK\emulator\qemu\windows-x86_64\qemu-system-x86_64.exe: icmpv6 ICMP6_ECHO_REQUEST failed
C:\apps\AndroidSDK\emulator\qemu\windows-x86_64\qemu-system-x86_64.exe: icmpv6 ICMP6_ECHO_REQUEST failed
C:\apps\AndroidSDK\emulator\qemu\windows-x86_64\qemu-system-x86_64.exe: icmpv6 ICMP6_ECHO_REQUEST failed
C:\apps\AndroidSDK\emulator\qemu\windows-x86_64\qemu-system-x86_64.exe: icmpv6 ICMP6_ECHO_REQUEST failed
C:\apps\AndroidSDK\emulator\qemu\windows-x86_64\qemu-system-x86_64.exe: icmpv6 ICMP6_ECHO_REQUEST failed
C:\apps\AndroidSDK\emulator\qemu\windows-x86_64\qemu-system-x86_64.exe: icmpv6 ICMP6_ECHO_REQUEST failed
C:\apps\AndroidSDK\emulator\qemu\windows-x86_64\qemu-system-x86_64.exe: icmpv6 ICMP6_ECHO_REQUEST failed
C:\apps\AndroidSDK\emulator\qemu\windows-x86_64\qemu-system-x86_64.exe: icmpv6 ICMP6_ECHO_REQUEST failed
C:\apps\AndroidSDK\emulator\qemu\windows-x86_64\qemu-system-x86_64.exe: icmpv6 ICMP6_ECHO_REQUEST failed
C:\apps\AndroidSDK\emulator\qemu\windows-x86_64\qemu-system-x86_64.exe: icmpv6 ICMP6_ECHO_REQUEST failed
C:\apps\AndroidSDK\emulator\qemu\windows-x86_64\qemu-system-x86_64.exe: icmpv6 ICMP6_ECHO_REQUEST failed
C:\apps\AndroidSDK\emulator\qemu\windows-x86_64\qemu-system-x86_64.exe: icmpv6 ICMP6_ECHO_REQUEST failed
C:\apps\AndroidSDK\emulator\qemu\windows-x86_64\qemu-system-x86_64.exe: icmpv6 ICMP6_ECHO_REQUEST failed
C:\apps\AndroidSDK\emulator\qemu\windows-x86_64\qemu-system-x86_64.exe: icmpv6 ICMP6_ECHO_REQUEST failed
C:\apps\AndroidSDK\emulator\qemu\windows-x86_64\qemu-system-x86_64.exe: icmpv6 ICMP6_ECHO_REQUEST failed
emulator: INFO: ScreenCapturer.cpp:67: Screenshot from renderer
deleteSnapshot: for default_boot
emulator: ERROR: AdbHostServer.cpp:93: Unable to connect to adb daemon on port: 5037
emulator: ERROR: AdbHostServer.cpp:93: Unable to connect to adb daemon on port: 5037
emulator: WARNING: Crash service did not start

Windows Hypervisor Platform accelerator is operational
Your emulator is out of date, please update by launching Android Studio:
 - Start Android Studio
 - Select menu "Tools > Android > SDK Manager"
 - Click "SDK Tools" tab
 - Check "Android Emulator" checkbox
 - Click "OK"

glTexImage2D: got err pre :( 0x502 internal 0x1908 format 0x1908 type 0x1401
glTexImage2D: got err :( 0x502 internal 0x1908 format 0x1908 type 0x1401
glTexImage2D: got err pre :( 0x502 internal 0x1908 format 0x1908 type 0x1401
glTexImage2D: got err :( 0x502 internal 0x1908 format 0x1908 type 0x1401
glTexImage2D: got err pre :( 0x502 internal 0x1908 format 0x1908 type 0x1401
glTexImage2D: got err :( 0x502 internal 0x1908 format 0x1908 type 0x1401
glTexImage2D: got err pre :( 0x502 internal 0x1908 format 0x1908 type 0x1401
glTexImage2D: got err :( 0x502 internal 0x1908 format 0x1908 type 0x1401
glTexImage2D: got err pre :( 0x502 internal 0x1908 format 0x1908 type 0x1401
glTexImage2D: got err :( 0x502 internal 0x1908 format 0x1908 type 0x1401
glTexImage2D: got err pre :( 0x502 internal 0x1908 format 0x1908 type 0x1401
glTexImage2D: got err :( 0x502 internal 0x1908 format 0x1908 type 0x1401
glTexImage2D: got err pre :( 0x502 internal 0x1908 format 0x1908 type 0x1401
glTexImage2D: got err :( 0x502 internal 0x1908 format 0x1908 type 0x1401
glTexImage2D: got err pre :( 0x502 internal 0x1908 format 0x1908 type 0x1401
glTexImage2D: got err :( 0x502 internal 0x1908 format 0x1908 type 0x1401
glTexImage2D: got err pre :( 0x502 internal 0x1908 format 0x1908 type 0x1401
glTexImage2D: got err :( 0x502 internal 0x1908 format 0x1908 type 0x1401
glTexImage2D: got err pre :( 0x502 internal 0x1908 format 0x1908 type 0x1401
glTexImage2D: got err :( 0x502 internal 0x1908 format 0x1908 type 0x1401
glTexImage2D: got err pre :( 0x502 internal 0x1908 format 0x1908 type 0x1401
glTexImage2D: got err :( 0x502 internal 0x1908 format 0x1908 type 0x1401
glTexImage2D: got err pre :( 0x502 internal 0x1908 format 0x1908 type 0x1401
glTexImage2D: got err :( 0x502 internal 0x1908 format 0x1908 type 0x1401
glTexImage2D: got err pre :( 0x502 internal 0x1908 format 0x1908 type 0x1401
glTexImage2D: got err :( 0x502 internal 0x1908 format 0x1908 type 0x1401
glTexImage2D: got err pre :( 0x502 internal 0x1908 format 0x1908 type 0x1401
glTexImage2D: got err :( 0x502 internal 0x1908 format 0x1908 type 0x1401
glTexImage2D: got err pre :( 0x506 internal 0x1906 format 0x1906 type 0x1401
glTexImage2D: got err pre :( 0x502 internal 0x1908 format 0x1908 type 0x1401
glTexImage2D: got err :( 0x502 internal 0x1908 format 0x1908 type 0x1401
glTexImage2D: got err pre :( 0x502 internal 0x1908 format 0x1908 type 0x1401
glTexImage2D: got err :( 0x502 internal 0x1908 format 0x1908 type 0x1401
glTexImage2D: got err pre :( 0x502 internal 0x1908 format 0x1908 type 0x1401
glTexImage2D: got err :( 0x502 internal 0x1908 format 0x1908 type 0x1401
glTexImage2D: got err pre :( 0x502 internal 0x1908 format 0x1908 type 0x1401
glTexImage2D: got err :( 0x502 internal 0x1908 format 0x1908 type 0x1401
glTexImage2D: got err pre :( 0x502 internal 0x1908 format 0x1908 type 0x1401
glTexImage2D: got err :( 0x502 internal 0x1908 format 0x1908 type 0x1401
glTexImage2D: got err pre :( 0x502 internal 0x1908 format 0x1908 type 0x1401
glTexImage2D: got err :( 0x502 internal 0x1908 format 0x1908 type 0x1401
/buildbot/src/android/emu-master-dev/external/qemu/android/android-emugl/host/libs/Translator/GLES_V2/GLESv2Imp.cpp:glGetAttachedShaders:1756 error 0x501
/buildbot/src/android/emu-master-dev/external/qemu/android/android-emugl/host/libs/Translator/GLES_V2/GLESv2Imp.cpp:glGetAttachedShaders:1756 error 0x501
/buildbot/src/android/emu-master-dev/external/qemu/android/android-emugl/host/libs/Translator/GLES_V2/GLESv2Imp.cpp:glDeleteProgram:1213 error 0x501
/buildbot/src/android/emu-master-dev/external/qemu/android/android-emugl/host/libs/Translator/GLES_V2/GLESv2Imp.cpp:glDeleteProgram:1213 error 0x501
/buildbot/src/android/emu-master-dev/external/qemu/android/android-emugl/host/libs/Translator/GLES_V2/GLESv2Imp.cpp:glGetAttachedShaders:1756 error 0x501
/buildbot/src/android/emu-master-dev/external/qemu/android/android-emugl/host/libs/Translator/GLES_V2/GLESv2Imp.cpp:glGetAttachedShaders:1756 error 0x501
/buildbot/src/android/emu-master-dev/external/qemu/android/android-emugl/host/libs/Translator/GLES_V2/GLESv2Imp.cpp:glDeleteProgram:1213 error 0x501
/buildbot/src/android/emu-master-dev/external/qemu/android/android-emugl/host/libs/Translator/GLES_V2/GLESv2Imp.cpp:glDeleteProgram:1213 error 0x501
/buildbot/src/android/emu-master-dev/external/qemu/android/android-emugl/host/libs/Translator/GLES_V2/GLESv2Imp.cpp:glGetAttachedShaders:1756 error 0x501
/buildbot/src/android/emu-master-dev/external/qemu/android/android-emugl/host/libs/Translator/GLES_V2/GLESv2Imp.cpp:glGetAttachedShaders:1756 error 0x501
/buildbot/src/android/emu-master-dev/external/qemu/android/android-emugl/host/libs/Translator/GLES_V2/GLESv2Imp.cpp:glDeleteProgram:1213 error 0x501
/buildbot/src/android/emu-master-dev/external/qemu/android/android-emugl/host/libs/Translator/GLES_V2/GLESv2Imp.cpp:glDeleteProgram:1213 error 0x501
/buildbot/src/android/emu-master-dev/external/qemu/android/android-emugl/host/libs/Translator/GLES_V2/GLESv2Imp.cpp:glGetAttachedShaders:1756 error 0x501
/buildbot/src/android/emu-master-dev/external/qemu/android/android-emugl/host/libs/Translator/GLES_V2/GLESv2Imp.cpp:glGetAttachedShaders:1756 error 0x501
/buildbot/src/android/emu-master-dev/external/qemu/android/android-emugl/host/libs/Translator/GLES_V2/GLESv2Imp.cpp:glDeleteProgram:1213 error 0x501
/buildbot/src/android/emu-master-dev/external/qemu/android/android-emugl/host/libs/Translator/GLES_V2/GLESv2Imp.cpp:glDeleteProgram:1213 error 0x501
/buildbot/src/android/emu-master-dev/external/qemu/android/android-emugl/host/libs/Translator/GLES_V2/GLESv2Imp.cpp:glGetAttachedShaders:1756 error 0x501
/buildbot/src/android/emu-master-dev/external/qemu/android/android-emugl/host/libs/Translator/GLES_V2/GLESv2Imp.cpp:glGetAttachedShaders:1756 error 0x501
/buildbot/src/android/emu-master-dev/external/qemu/android/android-emugl/host/libs/Translator/GLES_V2/GLESv2Imp.cpp:glDeleteProgram:1213 error 0x501
/buildbot/src/android/emu-master-dev/external/qemu/android/android-emugl/host/libs/Translator/GLES_V2/GLESv2Imp.cpp:glDeleteProgram:1213 error 0x501
/buildbot/src/android/emu-master-dev/external/qemu/android/android-emugl/host/libs/Translator/GLES_V2/GLESv2Imp.cpp:glGetAttachedShaders:1756 error 0x501
/buildbot/src/android/emu-master-dev/external/qemu/android/android-emugl/host/libs/Translator/GLES_V2/GLESv2Imp.cpp:glGetAttachedShaders:1756 error 0x501
/buildbot/src/android/emu-master-dev/external/qemu/android/android-emugl/host/libs/Translator/GLES_V2/GLESv2Imp.cpp:glDeleteProgram:1213 error 0x501
/buildbot/src/android/emu-master-dev/external/qemu/android/android-emugl/host/libs/Translator/GLES_V2/GLESv2Imp.cpp:glDeleteProgram:1213 error 0x501
/buildbot/src/android/emu-master-dev/external/qemu/android/android-emugl/host/libs/Translator/GLES_V2/GLESv2Imp.cpp:glGetAttachedShaders:1756 error 0x501
/buildbot/src/android/emu-master-dev/external/qemu/android/android-emugl/host/libs/Translator/GLES_V2/GLESv2Imp.cpp:glGetAttachedShaders:1756 error 0x501
/buildbot/src/android/emu-master-dev/external/qemu/android/android-emugl/host/libs/Translator/GLES_V2/GLESv2Imp.cpp:glDeleteProgram:1213 error 0x501
/buildbot/src/android/emu-master-dev/external/qemu/android/android-emugl/host/libs/Translator/GLES_V2/GLESv2Imp.cpp:glDeleteProgram:1213 error 0x501
glTexImage2D: got err pre :( 0x502 internal 0x1908 format 0x1908 type 0x1401
glTexImage2D: got err :( 0x502 internal 0x1908 format 0x1908 type 0x1401
glTexImage2D: got err pre :( 0x502 internal 0x1908 format 0x1908 type 0x1401
glTexImage2D: got err :( 0x502 internal 0x1908 format 0x1908 type 0x1401
glTexImage2D: got err pre :( 0x502 internal 0x1908 format 0x1908 type 0x1401
glTexImage2D: got err :( 0x502 internal 0x1908 format 0x1908 type 0x1401
glTexImage2D: got err pre :( 0x502 internal 0x1908 format 0x1908 type 0x1401
glTexImage2D: got err :( 0x502 internal 0x1908 format 0x1908 type 0x1401
glTexImage2D: got err pre :( 0x502 internal 0x1908 format 0x1908 type 0x1401
glTexImage2D: got err :( 0x502 internal 0x1908 format 0x1908 type 0x1401
glTexImage2D: got err pre :( 0x502 internal 0x1908 format 0x1908 type 0x1401
glTexImage2D: got err :( 0x502 internal 0x1908 format 0x1908 type 0x1401
/buildbot/src/android/emu-master-dev/external/qemu/android/android-emugl/host/libs/Translator/GLES_V2/GLESv2Imp.cpp:glGetAttachedShaders:1756 error 0x501
/buildbot/src/android/emu-master-dev/external/qemu/android/android-emugl/host/libs/Translator/GLES_V2/GLESv2Imp.cpp:glGetAttachedShaders:1756 error 0x501
/buildbot/src/android/emu-master-dev/external/qemu/android/android-emugl/host/libs/Translator/GLES_V2/GLESv2Imp.cpp:glDeleteProgram:1213 error 0x501
/buildbot/src/android/emu-master-dev/external/qemu/android/android-emugl/host/libs/Translator/GLES_V2/GLESv2Imp.cpp:glDeleteProgram:1213 error 0x501
/buildbot/src/android/emu-master-dev/external/qemu/android/android-emugl/host/libs/Translator/GLES_V2/GLESv2Imp.cpp:glGetAttachedShaders:1756 error 0x501
/buildbot/src/android/emu-master-dev/external/qemu/android/android-emugl/host/libs/Translator/GLES_V2/GLESv2Imp.cpp:glGetAttachedShaders:1756 error 0x501
/buildbot/src/android/emu-master-dev/external/qemu/android/android-emugl/host/libs/Translator/GLES_V2/GLESv2Imp.cpp:glDeleteProgram:1213 error 0x501
/buildbot/src/android/emu-master-dev/external/qemu/android/android-emugl/host/libs/Translator/GLES_V2/GLESv2Imp.cpp:glDeleteProgram:1213 error 0x501
glTexImage2D: got err pre :( 0x502 internal 0x1908 format 0x1908 type 0x1401
glTexImage2D: got err :( 0x502 internal 0x1908 format 0x1908 type 0x1401
glTexImage2D: got err pre :( 0x502 internal 0x1908 format 0x1908 type 0x1401
glTexImage2D: got err :( 0x502 internal 0x1908 format 0x1908 type 0x1401
glTexImage2D: got err pre :( 0x502 internal 0x1908 format 0x1908 type 0x1401
glTexImage2D: got err :( 0x502 internal 0x1908 format 0x1908 type 0x1401
glTexImage2D: got err pre :( 0x502 internal 0x1908 format 0x1908 type 0x1401
glTexImage2D: got err :( 0x502 internal 0x1908 format 0x1908 type 0x1401
glTexImage2D: got err pre :( 0x502 internal 0x1908 format 0x1908 type 0x1401
glTexImage2D: got err :( 0x502 internal 0x1908 format 0x1908 type 0x1401
glTexImage2D: got err pre :( 0x502 internal 0x1908 format 0x1908 type 0x1401
glTexImage2D: got err :( 0x502 internal 0x1908 format 0x1908 type 0x1401
glTexImage2D: got err pre :( 0x502 internal 0x1908 format 0x1908 type 0x1401
glTexImage2D: got err :( 0x502 internal 0x1908 format 0x1908 type 0x1401
glTexImage2D: got err pre :( 0x502 internal 0x1908 format 0x1908 type 0x1401
glTexImage2D: got err :( 0x502 internal 0x1908 format 0x1908 type 0x1401
glTexImage2D: got err pre :( 0x506 internal 0x1906 format 0x1906 type 0x1401
/buildbot/src/android/emu-master-dev/external/qemu/android/android-emugl/host/libs/Translator/GLES_V2/GLESv2Imp.cpp:glGetAttachedShaders:1756 error 0x501
/buildbot/src/android/emu-master-dev/external/qemu/android/android-emugl/host/libs/Translator/GLES_V2/GLESv2Imp.cpp:glGetAttachedShaders:1756 error 0x501
/buildbot/src/android/emu-master-dev/external/qemu/android/android-emugl/host/libs/Translator/GLES_V2/GLESv2Imp.cpp:glDeleteProgram:1213 error 0x501
/buildbot/src/android/emu-master-dev/external/qemu/android/android-emugl/host/libs/Translator/GLES_V2/GLESv2Imp.cpp:glDeleteProgram:1213 error 0x501
/buildbot/src/android/emu-master-dev/external/qemu/android/android-emugl/host/libs/Translator/GLES_V2/GLESv2Imp.cpp:glGetAttachedShaders:1756 error 0x501
/buildbot/src/android/emu-master-dev/external/qemu/android/android-emugl/host/libs/Translator/GLES_V2/GLESv2Imp.cpp:glGetAttachedShaders:1756 error 0x501
/buildbot/src/android/emu-master-dev/external/qemu/android/android-emugl/host/libs/Translator/GLES_V2/GLESv2Imp.cpp:glDeleteProgram:1213 error 0x501
/buildbot/src/android/emu-master-dev/external/qemu/android/android-emugl/host/libs/Translator/GLES_V2/GLESv2Imp.cpp:glDeleteProgram:1213 error 0x501
/buildbot/src/android/emu-master-dev/external/qemu/android/android-emugl/host/libs/Translator/GLES_V2/GLESv2Imp.cpp:glGetAttachedShaders:1756 error 0x501
/buildbot/src/android/emu-master-dev/external/qemu/android/android-emugl/host/libs/Translator/GLES_V2/GLESv2Imp.cpp:glGetAttachedShaders:1756 error 0x501
/buildbot/src/android/emu-master-dev/external/qemu/android/android-emugl/host/libs/Translator/GLES_V2/GLESv2Imp.cpp:glDeleteProgram:1213 error 0x501
/buildbot/src/android/emu-master-dev/external/qemu/android/android-emugl/host/libs/Translator/GLES_V2/GLESv2Imp.cpp:glDeleteProgram:1213 error 0x501
/buildbot/src/android/emu-master-dev/external/qemu/android/android-emugl/host/libs/Translator/GLES_V2/GLESv2Imp.cpp:glGetAttachedShaders:1756 error 0x501
/buildbot/src/android/emu-master-dev/external/qemu/android/android-emugl/host/libs/Translator/GLES_V2/GLESv2Imp.cpp:glGetAttachedShaders:1756 error 0x501
/buildbot/src/android/emu-master-dev/external/qemu/android/android-emugl/host/libs/Translator/GLES_V2/GLESv2Imp.cpp:glDeleteProgram:1213 error 0x501
/buildbot/src/android/emu-master-dev/external/qemu/android/android-emugl/host/libs/Translator/GLES_V2/GLESv2Imp.cpp:glDeleteProgram:1213 error 0x501
/buildbot/src/android/emu-master-dev/external/qemu/android/android-emugl/host/libs/Translator/GLES_V2/GLESv2Imp.cpp:glGetAttachedShaders:1756 error 0x501
/buildbot/src/android/emu-master-dev/external/qemu/android/android-emugl/host/libs/Translator/GLES_V2/GLESv2Imp.cpp:glGetAttachedShaders:1756 error 0x501
/buildbot/src/android/emu-master-dev/external/qemu/android/android-emugl/host/libs/Translator/GLES_V2/GLESv2Imp.cpp:glDeleteProgram:1213 error 0x501
/buildbot/src/android/emu-master-dev/external/qemu/android/android-emugl/host/libs/Translator/GLES_V2/GLESv2Imp.cpp:glDeleteProgram:1213 error 0x501
/buildbot/src/android/emu-master-dev/external/qemu/android/android-emugl/host/libs/Translator/GLES_V2/GLESv2Imp.cpp:glGetAttachedShaders:1756 error 0x501
/buildbot/src/android/emu-master-dev/external/qemu/android/android-emugl/host/libs/Translator/GLES_V2/GLESv2Imp.cpp:glGetAttachedShaders:1756 error 0x501
/buildbot/src/android/emu-master-dev/external/qemu/android/android-emugl/host/libs/Translator/GLES_V2/GLESv2Imp.cpp:glDeleteProgram:1213 error 0x501
/buildbot/src/android/emu-master-dev/external/qemu/android/android-emugl/host/libs/Translator/GLES_V2/GLESv2Imp.cpp:glDeleteProgram:1213 error 0x501
/buildbot/src/android/emu-master-dev/external/qemu/android/android-emugl/host/libs/Translator/GLES_V2/GLESv2Imp.cpp:glGetAttachedShaders:1756 error 0x501
/buildbot/src/android/emu-master-dev/external/qemu/android/android-emugl/host/libs/Translator/GLES_V2/GLESv2Imp.cpp:glGetAttachedShaders:1756 error 0x501
/buildbot/src/android/emu-master-dev/external/qemu/android/android-emugl/host/libs/Translator/GLES_V2/GLESv2Imp.cpp:glDeleteProgram:1213 error 0x501
/buildbot/src/android/emu-master-dev/external/qemu/android/android-emugl/host/libs/Translator/GLES_V2/GLESv2Imp.cpp:glDeleteProgram:1213 error 0x501
/buildbot/src/android/emu-master-dev/external/qemu/android/android-emugl/host/libs/Translator/GLES_V2/GLESv2Imp.cpp:glGetAttachedShaders:1756 error 0x501
/buildbot/src/android/emu-master-dev/external/qemu/android/android-emugl/host/libs/Translator/GLES_V2/GLESv2Imp.cpp:glGetAttachedShaders:1756 error 0x501
/buildbot/src/android/emu-master-dev/external/qemu/android/android-emugl/host/libs/Translator/GLES_V2/GLESv2Imp.cpp:glDeleteProgram:1213 error 0x501
/buildbot/src/android/emu-master-dev/external/qemu/android/android-emugl/host/libs/Translator/GLES_V2/GLESv2Imp.cpp:glDeleteProgram:1213 error 0x501
emulator: WARNING: Not saving state: RAM not mapped as shared
